ReferenceModel/trace.vcd
$date
     Apr 06, 2024       18:39:37
$end

$version
 SystemC 3.0.0-Accellera --- Apr  3 2024 15:57:24
$end

$timescale
     1 ps
$end

$scope module SystemC $end
$var wire    1  aaaaa  clk       $end
$var wire    1  aaaab  reset       $end
$var wire    2  aaaac  response [1:0]  $end
$var wire    2  aaaad  command [1:0]  $end
$var wire    8  aaaae  compressed_in [7:0]  $end
$var wire    8  aaaaf  compressed_out [7:0]  $end
$var wire   80  aaaag  data_in [79:0]  $end
$var wire   80  aaaah  decompressed_out [79:0]  $end
$upscope $end
$enddefinitions  $end

$comment
All initial values are dumped below at time 0 sec = 0 timescale units.
$end

$dumpvars
0aaaaa
0aaaab
b0 aaaac
b10 aaaad
b1011011 aaaae
bXXXXXXXX aaaaf
b1100010000000000110001011010101001101010100011110001100110001110111111010110 aaaag
bXXXXXXXXXXXXXXXXXXXXXXXXXXXXXXXXXXXXXXXXXXXXXXXXXXXXXXXXXXXXXXXXXXXXXXXXXXXXXXXX aaaah
$end

#5000
1aaaaa
b11 aaaac

#10000
0aaaaa
b100011 aaaae
b11100100101101001101110010100110001101100110101100001101000111000001001001100111 aaaag

#15000
1aaaaa

#20000
0aaaaa
b101111 aaaae
b11000110011001000100111110010100101100010001010011101001101101000101010111100010 aaaag

#25000
1aaaaa

#30000
0aaaaa
b1 aaaad
b110010 aaaae
b11110010100000000110101111110000000000101010001111010111101010010101100110101101 aaaag

#35000
1aaaaa
b10 aaaac
b1 aaaaf

#40000
0aaaaa
b10 aaaad
b101 aaaae
b1111010011100001101110001100111101010110011110110110001001001010101001111011101 aaaag

#45000
1aaaaa
b11 aaaac

#50000
0aaaaa
b1111 aaaae
b100001011011100111000111110101100001111110111011001001011111010111010010110010 aaaag

#55000
1aaaaa

#60000
0aaaaa
b11 aaaad
b111 aaaae
b10100110100010101011000101101001111011010110111111101000001010110110101001101001 aaaag

#65000
1aaaaa

#70000
0aaaaa
b100100 aaaae
b11110010011000000011111000110110110010100111101011011011111111010010111101100110 aaaag

#75000
1aaaaa

#80000
0aaaaa
b10 aaaad
b10001001 aaaae
b1101011110111100000111110100101100010011111110000100010110001100010010010000011 aaaag

#85000
1aaaaa

#90000
0aaaaa
b11 aaaad
b11100010 aaaae
b10111000110000101010011101111111011001101011010000110101100000011100110100111010 aaaag

#95000
1aaaaa

#100000
0aaaaa
b10 aaaad
b1011011 aaaae
b10110111111011101111100111010001111011011101110111010110101010010001001001101001 aaaag

#105000
1aaaaa

#110000
0aaaaa
b1 aaaad
b11001001 aaaae
b10001000011010011001101000100000000011101011111001000011101110001111100011011100 aaaag

#115000
1aaaaa
b10 aaaac
b10 aaaaf

#120000
0aaaaa
b10 aaaad
b10111111 aaaae
b10011010101011001001001111010100010011110100101011000001101000111101111010101110 aaaag

#125000
1aaaaa
b11 aaaac

#130000
0aaaaa
b1 aaaad
b10011011 aaaae
b1011010010001000000111011010111101101011010001111001011001101000001110100111111 aaaag

#135000
1aaaaa
b10 aaaac
b11 aaaaf

#140000
0aaaaa
b11 aaaad
b100010 aaaae
b10101100101000101111011101101110111110101111000000111100101001100110111110101100 aaaag

#145000
1aaaaa
b11 aaaac

#150000
0aaaaa
b10 aaaad
b10011 aaaae
b10010100100100011010001000100110011110011100010110000111010111101111000011101101 aaaag

#155000
1aaaaa

#160000
0aaaaa
b1 aaaad
b11010011 aaaae
b100100111001001100101100011010111010110011000000011010000010100110001111100000 aaaag

#165000
1aaaaa
b10 aaaac
b100 aaaaf

#170000
0aaaaa
b10 aaaad
b1111001 aaaae
b1101110110110011111000101010100111110110011101111100111100001101001101001001 aaaag

#175000
1aaaaa
b11 aaaac

#180000
0aaaaa
b1 aaaad
b10001001 aaaae
b11010011101100001011011011000100010111010010101001011011001100111001011001101110 aaaag

#185000
1aaaaa
b10 aaaac
b101 aaaaf

#190000
0aaaaa
b10 aaaad
b11010001 aaaae
b11011010000011011011101111001100110100110000111111110110010011111110010111111111 aaaag

#195000
1aaaaa
b11 aaaac

#200000
0aaaaa
b1 aaaad
b10000101 aaaae
b110111001111111011010111111010000100100000010100110001001011000110111000100001 aaaag

#205000
1aaaaa
b10 aaaac
b110 aaaaf

#210000
0aaaaa
b0 aaaad
b10110001 aaaae
b10100000100110111000101000011111010101011011110111011000010010000110100110011111 aaaag

#215000
1aaaaa
b0 aaaac

#220000
0aaaaa
b111011 aaaae
b111111011101010010010001111000110010000001111011100001001001101011110101101011 aaaag

#225000
1aaaaa

#230000
0aaaaa
b10 aaaad
b111110 aaaae
b10000010110111100001001111101111000110110011010101111011000000011011111101101 aaaag

#235000
1aaaaa
b11 aaaac

#240000
0aaaaa
b1 aaaad
b11000100 aaaae
b11010100110101100101111111010110100000100001000001010010001101101010110111101110 aaaag

#245000
1aaaaa
b10 aaaac
b111 aaaaf

#250000
0aaaaa
b0 aaaad
b10010100 aaaae
b1000000100110110110010001010100101010010110000000110011001001100100010110011 aaaag

#255000
1aaaaa
b0 aaaac

#260000
0aaaaa
b11 aaaad
b100 aaaae
b10101100001101000000001000001000101111000111101010111101110101000100110010101110 aaaag

#265000
1aaaaa
b11 aaaac

#270000
0aaaaa
b1111110 aaaae
b10101100000101000100011101100100010011101010001100110111110110000110011011101110 aaaag

#275000
1aaaaa

#280000
0aaaaa
b1 aaaad
b10100001 aaaae
b10100011001100100010011110011101000010011010111101001000110110011100110100100 aaaag

#285000
1aaaaa
b10 aaaac
b1000 aaaaf

#290000
0aaaaa
b11 aaaad
b1011000 aaaae
b1100010001101000101011100010101101011100111101010100101000101000000001011011011 aaaag

#295000
1aaaaa
b11 aaaac

#300000
0aaaaa
b1101 aaaae
b111000100110000000010110001001101011110000111100010011110000011000000101001100 aaaag

#305000
1aaaaa

#310000
0aaaaa
b110000 aaaae
b10111001110001001000110100100100000110110001001010110001000101000000101010001 aaaag

#315000
1aaaaa

#320000
0aaaaa
b10 aaaad
b11000010 aaaae
b10010001010111101100111001110110000111100010010011001010011111000110010110000101 aaaag

#325000
1aaaaa

#330000
0aaaaa
b1 aaaad
b11010100 aaaae
b101001010110011110100010111000101001011110000100011001110101010101111101010110 aaaag

#335000
1aaaaa
b10 aaaac
b1001 aaaaf

#340000
0aaaaa
b11 aaaad
b10110101 aaaae
b1111010110101010100000101010011010010111110100011000110000111011101011010111111 aaaag

#345000
1aaaaa
b11 aaaac

#350000
0aaaaa
b1 aaaad
b10101 aaaae
b110010000100000000111111101000110100010111000100100100101010110111000100110101 aaaag

#355000
1aaaaa
b10 aaaac
b1010 aaaaf

#360000
0aaaaa
b0 aaaad
b110100 aaaae
b100101100000010111100000010101000100111100010110011100010111101110010010100111 aaaag

#365000
1aaaaa
b0 aaaac

#370000
0aaaaa
b10 aaaad
b10011011 aaaae
b11011000110010010011010001111011001110000110001111111100101111110111000100100 aaaag

#375000
1aaaaa
b11 aaaac

#380000
0aaaaa
b0 aaaad
b1111011 aaaae
b11000000010001110011111111011101000110000111111011111111111111100100010110111011 aaaag

#385000
1aaaaa
b0 aaaac

#390000
0aaaaa
b1011011 aaaae
b10010111000100111101111111001111101000011101101100100101100100101110010111110111 aaaag

#395000
1aaaaa

#400000
0aaaaa
b10 aaaad
b1100000 aaaae
b10110100010011011010000011111110010101110000001111001111111011110011111011100100 aaaag

#405000
1aaaaa
b11 aaaac

#410000
0aaaaa
b0 aaaad
b10100101 aaaae
b11111011010000001111001110000110111101011110001011000100011100100110100100010000 aaaag

#415000
1aaaaa
b0 aaaac

#420000
0aaaaa
b10 aaaad
b1110011 aaaae
b100100001100110001100101110001110011100101001110010101001110100010001101100101 aaaag

#425000
1aaaaa
b11 aaaac

#430000
0aaaaa
b1 aaaad
b10111110 aaaae
b10111000011010011011001010010100000111001001111001011011001100111010101110001010 aaaag

#435000
1aaaaa
b10 aaaac
b1011 aaaaf

#440000
0aaaaa
b1101110 aaaae
b11111100001110001011010010010100100101001101010010001111000101000101000001010100 aaaag

#445000
1aaaaa
b1100 aaaaf

#450000
0aaaaa
b0 aaaad
b11110110 aaaae
b11000111100111101000110110110000011111010110001010001101111000100100010101110100 aaaag

#455000
1aaaaa
b0 aaaac

#460000
0aaaaa
b11 aaaad
b1111 aaaae
b10011111001110110010010011010010000001010100000001111000100011000100110111011000 aaaag

#465000
1aaaaa
b11 aaaac

#470000
0aaaaa
b1 aaaad
b110001 aaaae
b11100001110110100111000101001101100100100000011110011110100011011010101011101111 aaaag

#475000
1aaaaa
b10 aaaac
b1101 aaaaf

#480000
0aaaaa
b11 aaaad
b11011010 aaaae
b1010000101110111101010010110011001111110101001110101111001110101110110111111111 aaaag

#485000
1aaaaa
b11 aaaac

#490000
0aaaaa
b10 aaaad
b10001110 aaaae
b1101111011011011001000100100111011001011000000111110011011101110101111001110010 aaaag

#495000
1aaaaa

#500000
0aaaaa
b11 aaaad
b10110110 aaaae
b110011001110111001100101100100100000111111111101110111110011111010010011111111 aaaag

#505000
1aaaaa

#510000
0aaaaa
b1110111 aaaae
b11100110000000001001010011010011100000100011100111011101000110111001000110101001 aaaag

#515000
1aaaaa

#520000
0aaaaa
b0 aaaad
b1111110 aaaae
b10001010000100001011111110110011000010110011011001001111010010001111011110000011 aaaag

#525000
1aaaaa
b0 aaaac

#530000
0aaaaa
b10 aaaad
b11111000 aaaae
b11100100001001110000100100100100000111100110100010111110011100110010011011110001 aaaag

#535000
1aaaaa
b11 aaaac

#540000
0aaaaa
b1 aaaad
b10010001 aaaae
b11011100010001101001001111000100000001100111111110101101111100011001010110011011 aaaag

#545000
1aaaaa
b10 aaaac
b1110 aaaaf

#550000
0aaaaa
b0 aaaad
b11111001 aaaae
b11101011011111001011010000110000101110100100100110011100000111010101000110011101 aaaag

#555000
1aaaaa
b0 aaaac

#560000
0aaaaa
b11 aaaad
b10001101 aaaae
b10110011001001111100100001111011111001100111110111110001011001101110011111011101 aaaag

#565000
1aaaaa
b11 aaaac

#570000
0aaaaa
b10 aaaad
b10110000 aaaae
b1010100001011110111000110101111101010001010010001010111000101100100011000110 aaaag

#575000
1aaaaa

#580000
0aaaaa
b0 aaaad
b11001 aaaae
b1000000101111100010010011100101110101000000010100010110111110100101111100010110 aaaag

#585000
1aaaaa
b0 aaaac

#590000
0aaaaa
b11 aaaad
b10101001 aaaae
b11000001001000000100000000100101010101000010001110101011100001011101110100010000 aaaag

#595000
1aaaaa
b11 aaaac

#600000
0aaaaa
b1111111 aaaae
b101100110011000111010000110111110100000100111011001111001100000101011110000010 aaaag

#605000
1aaaaa

#610000
0aaaaa
b1 aaaad
b11001001 aaaae
b10001011001010101001111110010100010100101111001010100101011100111010111100011011 aaaag

#615000
1aaaaa
b10 aaaac
b1111 aaaaf

#620000
0aaaaa
b11101 aaaae
b11010000001010100110010101001001010111101111000100110001010001100000001001010100 aaaag

#625000
1aaaaa
b10000 aaaaf

#630000
0aaaaa
b11100110 aaaae
b1000110011001001000101000110001011011101111100011110010110001011001100110110000 aaaag

#635000
1aaaaa
b10001 aaaaf

#640000
0aaaaa
b11 aaaad
b1 aaaae
b10100000001001110001001000001001111000111000010100011000010001101100001010110110 aaaag

#645000
1aaaaa
b11 aaaac

#650000
0aaaaa
b1 aaaad
b1000001 aaaae
b101000110100110011100111001101010100000110110000011011001100100001111101001110 aaaag

#655000
1aaaaa
b10 aaaac
b10010 aaaaf

#660000
0aaaaa
b10 aaaad
b11011000 aaaae
b11010111011010001000110101001110100010001011001010111010011110011101110100111111 aaaag

#665000
1aaaaa
b11 aaaac

#670000
0aaaaa
b1 aaaad
b110001 aaaae
b10001101001001011110010101101011010011100110110010100001001001111001101001111 aaaag

#675000
1aaaaa
b10 aaaac
b10011 aaaaf

#680000
0aaaaa
b1110100 aaaae
b1100100010011011111110011111010111010001101111110100010010010010001010011000100 aaaag

#685000
1aaaaa
b10100 aaaaf

#690000
0aaaaa
b0 aaaad
b10101 aaaae
b10100101110000111011101000001110011110010111010100100111010110011011000100000101 aaaag

#695000
1aaaaa
b0 aaaac

#700000
0aaaaa
b11 aaaad
b1100110 aaaae
b11101100111011100001000001011000001100000001000100111000011100001000011100100101 aaaag

#705000
1aaaaa
b11 aaaac

#710000
0aaaaa
b1000111 aaaae
b1010001111000101001011100111110110000010001001000011010010001001100010011001010 aaaag

#715000
1aaaaa

#720000
0aaaaa
b11111000 aaaae
b10100101001011000001111100101101100001000010100001001000001011010100111101000101 aaaag

#725000
1aaaaa

#730000
0aaaaa
b1 aaaad
b10011 aaaae
b10100001101100100101111111110010111000010011100000000110110100000110000110011110 aaaag

#735000
1aaaaa
b10 aaaac
b10101 aaaaf

#740000
0aaaaa
b0 aaaad
b11001000 aaaae
b11000100001101111101111000100010000111000010010011110101000010100000111001111110 aaaag

#745000
1aaaaa
b0 aaaac

#750000
0aaaaa
b11 aaaad
b1111 aaaae
b10101011111111011011101111011011110001001011000110101000010000111000010100101001 aaaag

#755000
1aaaaa
b11 aaaac

#760000
0aaaaa
b10 aaaad
b1101000 aaaae
b1001000110011100111001101001001010001100000101010101100110011001100001100000110 aaaag

#765000
1aaaaa

#770000
0aaaaa
b11 aaaad
b1110011 aaaae
b11100101011010011111000010101101100100110111001001110000100011011010101001000011 aaaag

#775000
1aaaaa

#780000
0aaaaa
b10 aaaad
b11101010 aaaae
b1010000001001010110101110010001110011101010000100000000010101001111100110001000 aaaag

#785000
1aaaaa

#790000
0aaaaa
b0 aaaad
b10011111 aaaae
b11110101101000111011111010010100101010011000100101001011001101010000100010101 aaaag

#795000
1aaaaa
b0 aaaac

#800000
0aaaaa
b1 aaaad
b1100011 aaaae
b1001011110111000111010111011110101111101100111001011011001000111110101000100101 aaaag

#805000
1aaaaa
b10 aaaac
b10110 aaaaf

#810000
0aaaaa
b11 aaaad
b1100100 aaaae
b1001101010001101000110110010110111111101110111100001011101001101001010010110100 aaaag

#815000
1aaaaa
b11 aaaac

#820000
0aaaaa
b10 aaaad
b10011000 aaaae
b100111001111110011111001000011011101111011010110110000001111000001011001110000 aaaag

#825000
1aaaaa

#830000
0aaaaa
b1101111 aaaae
b11001110100101000111010111000010111111001000011111101110101000000000111101001000 aaaag

#835000
1aaaaa

#840000
0aaaaa
b11100101 aaaae
b111010110010001010100010000010110100000010101101000011110100010111110001000001 aaaag

#845000
1aaaaa

#850000
0aaaaa
b11 aaaad
b111000 aaaae
b11001101101100111000101100110000011001000101001101000001000111101110110111101000 aaaag

#855000
1aaaaa

#860000
0aaaaa
b10000011 aaaae
b10111110100000001011100110000100000000101010110000010110011110001110100110100010 aaaag

#865000
1aaaaa

#870000
0aaaaa
b1 aaaad
b1100010 aaaae
b11000001101000010101010101100000111000000001010111001100100001001011000111101 aaaag

#875000
1aaaaa
b10 aaaac
b10111 aaaaf

#880000
0aaaaa
b0 aaaad
b11101110 aaaae
b11100111011000101000000111011111010101011000001010111110100110101100110111000011 aaaag

#885000
1aaaaa
b0 aaaac

#890000
0aaaaa
b1001000 aaaae
b11011111011000110111101100100010100100110001101111111100101011110011101010010 aaaag

#895000
1aaaaa

#900000
0aaaaa
b10 aaaad
b1101 aaaae
b11111000101111101010100001110000000101000000001011111110110101001000011000110 aaaag

#905000
1aaaaa
b1 aaaac
b11011100010001101001001111000100000001100111111110101101111100011001010110011011 aaaah

#910000
0aaaaa
b11 aaaad
b10001110 aaaae
b11010111100010001111001011011011010110011101111111010000010001011111001010110110 aaaag

#915000
1aaaaa
b11 aaaac

#920000
0aaaaa
b10111000 aaaae
b10110111110100000101000011000101001001001101110010001010011110101110001010010000 aaaag

#925000
1aaaaa

#930000
0aaaaa
b0 aaaad
b1101000 aaaae
b111110001001111001100010101000100111000101100001001111010001101111100001111000 aaaag

#935000
1aaaaa
b0 aaaac

#940000
0aaaaa
b10001001 aaaae
b10011011011010010001111011100010111001000010000101001011111011011001000110001110 aaaag

#945000
1aaaaa

#950000
0aaaaa
b10 aaaad
b1001111 aaaae
b11101111100010100010111001000010011001000100100010100110101011100101110101001111 aaaag

#955000
1aaaaa
b11 aaaac

#960000
0aaaaa
b1 aaaad
b10001101 aaaae
b11110001000001000000100010010010011110001111110001100000110000011001110111111000 aaaag

#965000
1aaaaa
b10 aaaac
b11000 aaaaf

#970000
0aaaaa
b11 aaaad
b10001111 aaaae
b1111100100010010011010100110100100000101111010000010011110101000111000100110000 aaaag

#975000
1aaaaa
b11 aaaac

#980000
0aaaaa
b10 aaaad
b10101110 aaaae
b10000110101000111100011101100010100000001011001000110010001110111011100111100111 aaaag

#985000
1aaaaa

#990000
0aaaaa
b0 aaaad
b10000001 aaaae
b10111101100100110010011011011001101110111010010101011101100111111101001000010110 aaaag

#995000
1aaaaa
b0 aaaac

#1000000
0aaaaa
b11 aaaad
b11111100 aaaae
b11001000000011101111010100000000011101010110110110100110001100011110111011101000 aaaag

#1005000
1aaaaa
b11 aaaac

#1010000
0aaaaa
b10 aaaad
b10011101 aaaae
b110111111101110100010110101110010001001001001000100000101111000111100011010001 aaaag

#1015000
1aaaaa

#1020000
0aaaaa
b11 aaaad
b1001001 aaaae
b11100001010101111000101001101101100001011000000001101110111110110011001110000011 aaaag

#1025000
1aaaaa

#1030000
0aaaaa
b10 aaaad
b10111111 aaaae
b11010100101100111000000111001000110010111110010100011111111000100010110100011010 aaaag

#1035000
1aaaaa

#1040000
0aaaaa
b11 aaaad
b11100010 aaaae
b1000101001110101111011011101101100101101101100101101110111000001101000011011110 aaaag

#1045000
1aaaaa

#1050000
0aaaaa
b1 aaaad
b11101011 aaaae
b11001110100010000000010001101101111111110000101010100001100101110110111000101110 aaaag

#1055000
1aaaaa
b10 aaaac
b11001 aaaaf

#1060000
0aaaaa
b0 aaaad
b10101 aaaae
b11111000100100101110010100000100001010111100000000100101011000111101011110001111 aaaag

#1065000
1aaaaa
b0 aaaac

#1070000
0aaaaa
b10 aaaad
b11111010 aaaae
b110110110110101111100011000111011010110010111101101101110010110100000110011110 aaaag

#1075000
1aaaaa
b11 aaaac

#1080000
0aaaaa
b1010 aaaae
b11111000111001011011100100111100110001110001011100101010010010110101111001011111 aaaag

#1085000
1aaaaa
b1 aaaac
b10111000011010011011001010010100000111001001111001011011001100111010101110001010 aaaah

#1090000
0aaaaa
b1 aaaad
b11011100 aaaae
b1100110001000000011000101100010011001111000111011100001001001110101011000100 aaaag

#1095000
1aaaaa
b10 aaaac
b11010 aaaaf

#1100000
0aaaaa
b10 aaaad
b10010 aaaae
b11110011001010111010010000001011011101011001000000111100001010000010000010101 aaaag

#1105000
1aaaaa
b1 aaaac
b10001101001001011110010101101011010011100110110010100001001001111001101001111 aaaah

#1110000
0aaaaa
b1 aaaad
b11111011 aaaae
b11101010000101010111000110111010001010101100101001111001101010101111011110001011 aaaag

#1115000
1aaaaa
b10 aaaac
b11011 aaaaf

#1120000
0aaaaa
b11 aaaad
b1110111 aaaae
b1000010101101000111111111110101011111110110101101100110011110100110110110010011 aaaag

#1125000
1aaaaa
b11 aaaac

#1130000
0aaaaa
b1101000 aaaae
b11011101101001011100100101101101010001000010000000111110100001010101110100010111 aaaag

#1135000
1aaaaa

#1140000
0aaaaa
b11111110 aaaae
b10101010011110101011001100011011110110101111011001010111001011000100101101101110 aaaag

#1145000
1aaaaa

#1150000
0aaaaa
b10 aaaad
b11010010 aaaae
b11000100001101110010100100001011010010111111111001010111101111011100000100110100 aaaag

#1155000
1aaaaa

#1160000
0aaaaa
b1 aaaad
b10101100 aaaae
b10001110010110111000101000111100011101010100001110011000110111000001101000101 aaaag

#1165000
1aaaaa
b10 aaaac
b11100 aaaaf

#1170000
0aaaaa
b10 aaaad
b11101110 aaaae
b1101000110111100111110010001010000011011110111011100010001000011111101101001110 aaaag

#1175000
1aaaaa
b11 aaaac

#1180000
0aaaaa
b0 aaaad
b1101100 aaaae
b11100100101110101101010000011001001100000000101101001110010001010001010111010000 aaaag

#1185000
1aaaaa
b0 aaaac

#1190000
0aaaaa
b11 aaaad
b100001 aaaae
b10001100010110001110010000111101110111001111100101001110011000000100010010111010 aaaag

#1195000
1aaaaa
b11 aaaac

#1200000
0aaaaa
b0 aaaad
b10000011 aaaae
b1110001111000100101110110000010010001001101000111110110011101011000001100110010 aaaag

#1205000
1aaaaa
b0 aaaac

#1210000
0aaaaa
b1 aaaad
b11010101 aaaae
b11110101010011011110011100000000000101010100011011101100001110101010100001110110 aaaag

#1215000
1aaaaa
b10 aaaac
b11101 aaaaf

#1220000
0aaaaa
b0 aaaad
b10010000 aaaae
b100110011100011111001100001110101001100101011010011110001010111100001101111010 aaaag

#1225000
1aaaaa
b0 aaaac

#1230000
0aaaaa
b1 aaaad
b10000101 aaaae
b10000001110011001011111010001100011100111001010000110100010111000001101110000100 aaaag

#1235000
1aaaaa
b10 aaaac
b11110 aaaaf

#1240000
0aaaaa
b10001110 aaaae
b10100011101101111000101010100001110001100111110101010000100111101011010110000100 aaaag

#1245000
1aaaaa
b11111 aaaaf

#1250000
0aaaaa
b10 aaaad
b1101 aaaae
b1100111111110001000101010001010111001001100001011110001110110011000001101010000 aaaag

#1255000
1aaaaa
b1 aaaac
b11011100010001101001001111000100000001100111111110101101111100011001010110011011 aaaah

#1260000
0aaaaa
b11 aaaad
b11111010 aaaae
b11001011110011001110011100110111000001001111100100010111011101111100101100111011 aaaag

#1265000
1aaaaa
b11 aaaac

#1270000
0aaaaa
b0 aaaad
b1110 aaaae
b1011011110011111100100000111000110110110000100111011100000001000100110000001111 aaaag

#1275000
1aaaaa
b0 aaaac

#1280000
0aaaaa
b11 aaaad
b11001000 aaaae
b111010110110001001111001010011111110110010101001001011001001001111010100110101 aaaag

#1285000
1aaaaa
b11 aaaac

#1290000
0aaaaa
b10 aaaad
b11110011 aaaae
b10010010100001101010011101010101011111010101001001011001011111111111111010100101 aaaag

#1295000
1aaaaa

#1300000
0aaaaa
b0 aaaae
b11001000110100100001001010010000011111011110010101111111001111101101111110110010 aaaag

#1305000
1aaaaa
b1 aaaac
b11110010100000000110101111110000000000101010001111010111101010010101100110101101 aaaah

#1310000
0aaaaa
b11 aaaad
b11011011 aaaae
b1101110011001101110001100111111010000111100011011100101100110101110010001111101 aaaag

#1315000
1aaaaa
b11 aaaac

#1320000
0aaaaa
b10 aaaad
b100011 aaaae
b1000000101010000101111110010011101010011000111010000100011101000000110001101110 aaaag

#1325000
1aaaaa

#1330000
0aaaaa
b1 aaaad
b110100 aaaae
b1111000100011010110011001101010010011111011000100010101101111111001110100101001 aaaag

#1335000
1aaaaa
b10 aaaac
b100000 aaaaf

#1340000
0aaaaa
b0 aaaad
b110110 aaaae
b1001000100000101100111010001111100101100011111110100110100100110111110110110100 aaaag

#1345000
1aaaaa
b0 aaaac

#1350000
0aaaaa
b10001101 aaaae
b10110010001101001110101111010100001101110101111101100100110101011000100001100101 aaaag

#1355000
1aaaaa

#1360000
0aaaaa
b1 aaaad
b11000001 aaaae
b11011000101000101001000110101011001111010101000111100001010000001101111011110011 aaaag

#1365000
1aaaaa
b10 aaaac
b100001 aaaaf

#1370000
0aaaaa
b0 aaaad
b10100 aaaae
b1100001000110110010010000100010011000001101100010010101000010101110011010011110 aaaag

#1375000
1aaaaa
b0 aaaac

#1380000
0aaaaa
b1 aaaad
b10011000 aaaae
b10111110000110001111000111100000100100001101111111100000001011110100011100100101 aaaag

#1385000
1aaaaa
b10 aaaac
b100010 aaaaf

#1390000
0aaaaa
b11 aaaad
b11001000 aaaae
b10100001110111000001010110001100001100000111100011001111001000110101010010010100 aaaag

#1395000
1aaaaa
b11 aaaac

#1400000
0aaaaa
b10 aaaad
b10001111 aaaae
b11001100100010000101001111010101110111110010001100010000110010010101001111100111 aaaag

#1405000
1aaaaa

#1410000
0aaaaa
b11 aaaad
b11100000 aaaae
b10000111100001000010011100100000110000101010010000110001100010010111011001101010 aaaag

#1415000
1aaaaa

#1420000
0aaaaa
b10 aaaad
b1000011 aaaae
b110010100110111011111111000111011111110010111101111011011111000000100000000010 aaaag

#1425000
1aaaaa

#1430000
0aaaaa
b1 aaaad
b10010111 aaaae
b111001100001111101011101001000110000011100010011001001010100010001111111101011 aaaag

#1435000
1aaaaa
b10 aaaac
b100011 aaaaf

#1440000
0aaaaa
b11 aaaad
b11011110 aaaae
b11011100100000000000000101111110100101000111101010101000000110011100110000000010 aaaag

#1445000
1aaaaa
b11 aaaac

#1450000
0aaaaa
b10 aaaad
b11100110 aaaae
b1011010011100001111101001001000011101010011110111110001001010010011000100000111 aaaag

#1455000
1aaaaa

#1460000
0aaaaa
b1 aaaad
b1000010 aaaae
b10000110110011000110111010011110001000100000010010100110100100011100010101001111 aaaag

#1465000
1aaaaa
b10 aaaac
b100100 aaaaf

#1470000
0aaaaa
b11 aaaad
b11101001 aaaae
b1100010110101111001110101101110111011011100100110100101100101001001010011010 aaaag

#1475000
1aaaaa
b11 aaaac

#1480000
0aaaaa
b10 aaaad
b10010010 aaaae
b1010110000010100111001000010101111111001011100101100111101000011011101111 aaaag

#1485000
1aaaaa

#1490000
0aaaaa
b1001010 aaaae
b1101110100100100100001100001001100101000001110011001010000001000001011100010101 aaaag

#1495000
1aaaaa

#1500000
0aaaaa
b0 aaaad
b11100101 aaaae
b11010101011011101110101011010110100011001010011011010010001101000010001111010000 aaaag

#1505000
1aaaaa
b0 aaaac

#1510000
0aaaaa
b10010000 aaaae
b11010100111111001101001011001110100011111110001000001110111110001111101000111111 aaaag

#1515000
1aaaaa

#1520000
0aaaaa
b1 aaaad
b10010111 aaaae
b11000010111101001111111010110110101011110001011011111101011111010101101010101101 aaaag

#1525000
1aaaaa
b10 aaaac
b100101 aaaaf

#1530000
0aaaaa
b10 aaaad
b11000100 aaaae
b1011010000010010011010111001010101111100001111000010101110000101110011100100001 aaaag

#1535000
1aaaaa
b11 aaaac

#1540000
0aaaaa
b11 aaaad
b100011 aaaae
b10000100010001000111010111100111000101010111100101111011011011010110110010001001 aaaag

#1545000
1aaaaa

#1550000
0aaaaa
b1 aaaad
b10101011 aaaae
b1111011101110011100111100001000001001000101001000100101101110000011100000011000 aaaag

#1555000
1aaaaa
b10 aaaac
b100110 aaaaf

#1560000
0aaaaa
b11 aaaad
b1011 aaaae
b11000100100111010001111101001101100101010111001110110110101101110111101111100100 aaaag

#1565000
1aaaaa
b11 aaaac

#1570000
0aaaaa
b1 aaaad
b1011011 aaaae
b1101001111111010111100010011100101001001001011101100111001000110001010011000011 aaaag

#1575000
1aaaaa
b10 aaaac
b100111 aaaaf

#1580000
0aaaaa
b0 aaaad
b11000 aaaae
b1111000011101010100111011101011111110100111101000000010011111110110011111110111 aaaag

#1585000
1aaaaa
b0 aaaac

#1590000
0aaaaa
b11 aaaad
b110010 aaaae
b1101001110010011011000000101101100100000111011000011101010111100001111111111100 aaaag

#1595000
1aaaaa
b11 aaaac

#1600000
0aaaaa
b0 aaaad
b11000010 aaaae
b1000111000000000100001000001110101000111000101100011010101001110000100110001000 aaaag

#1605000
1aaaaa
b0 aaaac

#1610000
0aaaaa
b10 aaaad
b10001010 aaaae
b11001010110010101110010001111001010000100000001011000111001010001010110111000110 aaaag

#1615000
1aaaaa
b11 aaaac

#1620000
0aaaaa
b11 aaaad
b10011000 aaaae
b11100110001101110110000110111101000101110101101000101001100111100101101000000011 aaaag

#1625000
1aaaaa

#1630000
0aaaaa
b11010001 aaaae
b1110010011001010101110110001001101011101000010111111010001001000011000011101001 aaaag

#1635000
1aaaaa

#1640000
0aaaaa
b1 aaaad
b10101111 aaaae
b11100000011011010110110011010110111000101011001001111000010110010101010000010101 aaaag

#1645000
1aaaaa
b10 aaaac
b101000 aaaaf

#1650000
0aaaaa
b10 aaaad
b10101 aaaae
b10110010000001111011100111111001101011101010000111110000000011110110011010101001 aaaag

#1655000
1aaaaa
b1 aaaac
b1001011110111000111010111011110101111101100111001011011001000111110101000100101 aaaah

#1660000
0aaaaa
b1 aaaad
b1101110 aaaae
b11111011100010111111100011000010010010110000101101110100100010100010011100000011 aaaag

#1665000
1aaaaa
b10 aaaac
b101001 aaaaf

#1670000
0aaaaa
b0 aaaad
b11100 aaaae
b10101111000001001111111000001101000001000110001001011000110111000110101111001010 aaaag

#1675000
1aaaaa
b0 aaaac

#1680000
0aaaaa
b11 aaaad
b1111100 aaaae
b1110100000000011001000100011001101000010101000011000111000111110110100000011101 aaaag

#1685000
1aaaaa
b11 aaaac

#1690000
0aaaaa
b1 aaaad
b10111101 aaaae
b101011110101011000010010001101100100100001010001101011111110110111010000010100 aaaag

#1695000
1aaaaa
b10 aaaac
b101010 aaaaf

#1700000
0aaaaa
b10 aaaad
b1111100 aaaae
b100001001011101011110101011000100101110100100000000111101010100001101001010101 aaaag

#1705000
1aaaaa
b11 aaaac

#1710000
0aaaaa
b0 aaaad
b11000111 aaaae
b10011110111101111110100110101011000000000011010010100000011001111010100010010101 aaaag

#1715000
1aaaaa
b0 aaaac

#1720000
0aaaaa
b11 aaaad
b11100100 aaaae
b11111101100011101010010100000000000111110100100110010011100001010110000101100001 aaaag

#1725000
1aaaaa
b11 aaaac

#1730000
0aaaaa
b10100100 aaaae
b110011000111010101101111000001101010001111101000011111100011110111000110111011 aaaag

#1735000
1aaaaa

#1740000
0aaaaa
b10 aaaad
b11110111 aaaae
b1000000001101100110101111000011010100011110111000101011000111001110000000111000 aaaag

#1745000
1aaaaa

#1750000
0aaaaa
b0 aaaad
b10010 aaaae
b10000010101001001010110111011110101001101100111100100001111101001110111110000101 aaaag

#1755000
1aaaaa
b0 aaaac

#1760000
0aaaaa
b10011011 aaaae
b1000000100011100101111100001110011100110000001101011010100100010100000111010110 aaaag

#1765000
1aaaaa

#1770000
0aaaaa
b10 aaaad
b10110110 aaaae
b10111110001111101000101010110101101101010010010111011011111100101101111000010110 aaaag

#1775000
1aaaaa
b11 aaaac

