ReferenceModel/trace.vcd
$date
     Apr 04, 2024       15:18:40
$end

$version
 SystemC 3.0.0-Accellera --- Apr  4 2024 13:55:23
$end

$timescale
     1 ps
$end

$scope module SystemC $end
$var wire    1  aaaaa  clk       $end
$var wire    1  aaaab  reset       $end
$var wire    1  aaaac  response       $end
$var wire    1  aaaad  response       $end
$var wire    1  aaaae  command       $end
$var wire    1  aaaaf  command       $end
$var wire    1  aaaag  compressed_in       $end
$var wire    1  aaaah  compressed_in       $end
$var wire    1  aaaai  compressed_in       $end
$var wire    1  aaaaj  compressed_in       $end
$var wire    1  aaaak  compressed_in       $end
$var wire    1  aaaal  compressed_in       $end
$var wire    1  aaaam  compressed_in       $end
$var wire    1  aaaan  compressed_in       $end
$var wire    1  aaaao  compressed_out       $end
$var wire    1  aaaap  compressed_out       $end
$var wire    1  aaaaq  compressed_out       $end
$var wire    1  aaaar  compressed_out       $end
$var wire    1  aaaas  compressed_out       $end
$var wire    1  aaaat  compressed_out       $end
$var wire    1  aaaau  compressed_out       $end
$var wire    1  aaaav  compressed_out       $end
$var wire    1  aaaaw  data_in       $end
$var wire    1  aaaax  data_in       $end
$var wire    1  aaaay  data_in       $end
$var wire    1  aaaaz  data_in       $end
$var wire    1  aaaba  data_in       $end
$var wire    1  aaabb  data_in       $end
$var wire    1  aaabc  data_in       $end
$var wire    1  aaabd  data_in       $end
$var wire    1  aaabe  data_in       $end
$var wire    1  aaabf  data_in       $end
$var wire    1  aaabg  data_in       $end
$var wire    1  aaabh  data_in       $end
$var wire    1  aaabi  data_in       $end
$var wire    1  aaabj  data_in       $end
$var wire    1  aaabk  data_in       $end
$var wire    1  aaabl  data_in       $end
$var wire    1  aaabm  data_in       $end
$var wire    1  aaabn  data_in       $end
$var wire    1  aaabo  data_in       $end
$var wire    1  aaabp  data_in       $end
$var wire    1  aaabq  data_in       $end
$var wire    1  aaabr  data_in       $end
$var wire    1  aaabs  data_in       $end
$var wire    1  aaabt  data_in       $end
$var wire    1  aaabu  data_in       $end
$var wire    1  aaabv  data_in       $end
$var wire    1  aaabw  data_in       $end
$var wire    1  aaabx  data_in       $end
$var wire    1  aaaby  data_in       $end
$var wire    1  aaabz  data_in       $end
$var wire    1  aaaca  data_in       $end
$var wire    1  aaacb  data_in       $end
$var wire    1  aaacc  data_in       $end
$var wire    1  aaacd  data_in       $end
$var wire    1  aaace  data_in       $end
$var wire    1  aaacf  data_in       $end
$var wire    1  aaacg  data_in       $end
$var wire    1  aaach  data_in       $end
$var wire    1  aaaci  data_in       $end
$var wire    1  aaacj  data_in       $end
$var wire    1  aaack  data_in       $end
$var wire    1  aaacl  data_in       $end
$var wire    1  aaacm  data_in       $end
$var wire    1  aaacn  data_in       $end
$var wire    1  aaaco  data_in       $end
$var wire    1  aaacp  data_in       $end
$var wire    1  aaacq  data_in       $end
$var wire    1  aaacr  data_in       $end
$var wire    1  aaacs  data_in       $end
$var wire    1  aaact  data_in       $end
$var wire    1  aaacu  data_in       $end
$var wire    1  aaacv  data_in       $end
$var wire    1  aaacw  data_in       $end
$var wire    1  aaacx  data_in       $end
$var wire    1  aaacy  data_in       $end
$var wire    1  aaacz  data_in       $end
$var wire    1  aaada  data_in       $end
$var wire    1  aaadb  data_in       $end
$var wire    1  aaadc  data_in       $end
$var wire    1  aaadd  data_in       $end
$var wire    1  aaade  data_in       $end
$var wire    1  aaadf  data_in       $end
$var wire    1  aaadg  data_in       $end
$var wire    1  aaadh  data_in       $end
$var wire    1  aaadi  data_in       $end
$var wire    1  aaadj  data_in       $end
$var wire    1  aaadk  data_in       $end
$var wire    1  aaadl  data_in       $end
$var wire    1  aaadm  data_in       $end
$var wire    1  aaadn  data_in       $end
$var wire    1  aaado  data_in       $end
$var wire    1  aaadp  data_in       $end
$var wire    1  aaadq  data_in       $end
$var wire    1  aaadr  data_in       $end
$var wire    1  aaads  data_in       $end
$var wire    1  aaadt  data_in       $end
$var wire    1  aaadu  data_in       $end
$var wire    1  aaadv  data_in       $end
$var wire    1  aaadw  data_in       $end
$var wire    1  aaadx  data_in       $end
$var wire    1  aaady  decompressed_out       $end
$var wire    1  aaadz  decompressed_out       $end
$var wire    1  aaaea  decompressed_out       $end
$var wire    1  aaaeb  decompressed_out       $end
$var wire    1  aaaec  decompressed_out       $end
$var wire    1  aaaed  decompressed_out       $end
$var wire    1  aaaee  decompressed_out       $end
$var wire    1  aaaef  decompressed_out       $end
$var wire    1  aaaeg  decompressed_out       $end
$var wire    1  aaaeh  decompressed_out       $end
$var wire    1  aaaei  decompressed_out       $end
$var wire    1  aaaej  decompressed_out       $end
$var wire    1  aaaek  decompressed_out       $end
$var wire    1  aaael  decompressed_out       $end
$var wire    1  aaaem  decompressed_out       $end
$var wire    1  aaaen  decompressed_out       $end
$var wire    1  aaaeo  decompressed_out       $end
$var wire    1  aaaep  decompressed_out       $end
$var wire    1  aaaeq  decompressed_out       $end
$var wire    1  aaaer  decompressed_out       $end
$var wire    1  aaaes  decompressed_out       $end
$var wire    1  aaaet  decompressed_out       $end
$var wire    1  aaaeu  decompressed_out       $end
$var wire    1  aaaev  decompressed_out       $end
$var wire    1  aaaew  decompressed_out       $end
$var wire    1  aaaex  decompressed_out       $end
$var wire    1  aaaey  decompressed_out       $end
$var wire    1  aaaez  decompressed_out       $end
$var wire    1  aaafa  decompressed_out       $end
$var wire    1  aaafb  decompressed_out       $end
$var wire    1  aaafc  decompressed_out       $end
$var wire    1  aaafd  decompressed_out       $end
$var wire    1  aaafe  decompressed_out       $end
$var wire    1  aaaff  decompressed_out       $end
$var wire    1  aaafg  decompressed_out       $end
$var wire    1  aaafh  decompressed_out       $end
$var wire    1  aaafi  decompressed_out       $end
$var wire    1  aaafj  decompressed_out       $end
$var wire    1  aaafk  decompressed_out       $end
$var wire    1  aaafl  decompressed_out       $end
$var wire    1  aaafm  decompressed_out       $end
$var wire    1  aaafn  decompressed_out       $end
$var wire    1  aaafo  decompressed_out       $end
$var wire    1  aaafp  decompressed_out       $end
$var wire    1  aaafq  decompressed_out       $end
$var wire    1  aaafr  decompressed_out       $end
$var wire    1  aaafs  decompressed_out       $end
$var wire    1  aaaft  decompressed_out       $end
$var wire    1  aaafu  decompressed_out       $end
$var wire    1  aaafv  decompressed_out       $end
$var wire    1  aaafw  decompressed_out       $end
$var wire    1  aaafx  decompressed_out       $end
$var wire    1  aaafy  decompressed_out       $end
$var wire    1  aaafz  decompressed_out       $end
$var wire    1  aaaga  decompressed_out       $end
$var wire    1  aaagb  decompressed_out       $end
$var wire    1  aaagc  decompressed_out       $end
$var wire    1  aaagd  decompressed_out       $end
$var wire    1  aaage  decompressed_out       $end
$var wire    1  aaagf  decompressed_out       $end
$var wire    1  aaagg  decompressed_out       $end
$var wire    1  aaagh  decompressed_out       $end
$var wire    1  aaagi  decompressed_out       $end
$var wire    1  aaagj  decompressed_out       $end
$var wire    1  aaagk  decompressed_out       $end
$var wire    1  aaagl  decompressed_out       $end
$var wire    1  aaagm  decompressed_out       $end
$var wire    1  aaagn  decompressed_out       $end
$var wire    1  aaago  decompressed_out       $end
$var wire    1  aaagp  decompressed_out       $end
$var wire    1  aaagq  decompressed_out       $end
$var wire    1  aaagr  decompressed_out       $end
$var wire    1  aaags  decompressed_out       $end
$var wire    1  aaagt  decompressed_out       $end
$var wire    1  aaagu  decompressed_out       $end
$var wire    1  aaagv  decompressed_out       $end
$var wire    1  aaagw  decompressed_out       $end
$var wire    1  aaagx  decompressed_out       $end
$var wire    1  aaagy  decompressed_out       $end
$var wire    1  aaagz  decompressed_out       $end
$upscope $end
$enddefinitions  $end

$comment
All initial values are dumped below at time 0 sec = 0 timescale units.
$end

$dumpvars
0aaaaa
0aaaab
0aaaac
0aaaad
0aaaae
1aaaaf
1aaaag
0aaaah
1aaaai
0aaaaj
1aaaak
0aaaal
0aaaam
0aaaan
0aaaao
0aaaap
0aaaaq
0aaaar
0aaaas
0aaaat
0aaaau
0aaaav
1aaaaw
0aaaax
1aaaay
0aaaaz
0aaaba
0aaabb
0aaabc
0aaabd
0aaabe
0aaabf
1aaabg
0aaabh
1aaabi
0aaabj
1aaabk
1aaabl
0aaabm
1aaabn
1aaabo
1aaabp
0aaabq
0aaabr
1aaabs
1aaabt
1aaabu
0aaabv
1aaabw
1aaabx
0aaaby
0aaabz
0aaaca
1aaacb
1aaacc
0aaacd
0aaace
0aaacf
0aaacg
1aaach
0aaaci
1aaacj
0aaack
0aaacl
0aaacm
0aaacn
1aaaco
1aaacp
1aaacq
0aaacr
1aaacs
1aaact
0aaacu
0aaacv
0aaacw
0aaacx
0aaacy
0aaacz
1aaada
1aaadb
1aaadc
1aaadd
0aaade
0aaadf
1aaadg
1aaadh
1aaadi
0aaadj
0aaadk
0aaadl
0aaadm
1aaadn
0aaado
1aaadp
0aaadq
0aaadr
1aaads
1aaadt
0aaadu
1aaadv
0aaadw
0aaadx
0aaady
0aaadz
0aaaea
0aaaeb
0aaaec
0aaaed
0aaaee
0aaaef
0aaaeg
0aaaeh
0aaaei
0aaaej
0aaaek
0aaael
0aaaem
0aaaen
0aaaeo
0aaaep
0aaaeq
0aaaer
0aaaes
0aaaet
0aaaeu
0aaaev
0aaaew
0aaaex
0aaaey
0aaaez
0aaafa
0aaafb
0aaafc
0aaafd
0aaafe
0aaaff
0aaafg
0aaafh
0aaafi
0aaafj
0aaafk
0aaafl
0aaafm
0aaafn
0aaafo
0aaafp
0aaafq
0aaafr
0aaafs
0aaaft
0aaafu
0aaafv
0aaafw
0aaafx
0aaafy
0aaafz
0aaaga
0aaagb
0aaagc
0aaagd
0aaage
0aaagf
0aaagg
0aaagh
0aaagi
0aaagj
0aaagk
0aaagl
0aaagm
0aaagn
0aaago
0aaagp
0aaagq
0aaagr
0aaags
0aaagt
0aaagu
0aaagv
0aaagw
0aaagx
0aaagy
0aaagz
$end

#5000
1aaaaa
1aaaad
1aaaap
1aaaas
1aaaat
1aaaav

#10000
0aaaaa
0aaaaf
1aaaah
1aaaaj
0aaaak
1aaaal
1aaaam
0aaaaw
1aaabb
1aaabc
1aaabd
1aaabe
0aaabg
0aaabi
1aaabj
0aaabl
1aaabm
0aaabn
0aaabo
1aaabq
0aaabs
0aaabu
1aaaby
0aaacb
1aaace
1aaaci
0aaacj
0aaaco
0aaacp
1aaacr
0aaacs
1aaacu
1aaacy
1aaacz
0aaadd
1aaadl
0aaadn
0aaadp
1aaadq
1aaadr
1aaadu
1aaadw

#15000
1aaaaa
0aaaad

#20000
0aaaaa
1aaaae
0aaaag
0aaaai
1aaaak
1aaaan
1aaaaw
1aaaax
1aaaba
0aaabb
0aaabd
0aaabe
1aaabh
1aaabi
0aaabj
0aaabk
1aaabl
0aaabm
0aaabp
1aaabv
0aaabw
1aaacb
0aaacc
0aaace
1aaacg
0aaach
0aaaci
1aaacl
1aaacm
0aaacr
1aaacs
0aaact
1aaacv
1aaacw
1aaacx
0aaadb
1aaadd
0aaadg
1aaadj
1aaadk
0aaadl
1aaadm
1aaado
0aaadq
0aaadu
0aaadw

#25000
1aaaaa
1aaaac
1aaaad

#30000
0aaaaa
0aaaae
1aaaaf
1aaaag
0aaaaj
0aaaak
0aaaam
0aaaaw
0aaaay
1aaaaz
0aaaba
1aaabe
1aaabf
1aaabg
0aaabh
0aaabi
1aaabo
1aaabr
1aaabu
0aaabv
1aaabw
0aaaby
1aaaca
1aaacc
1aaace
1aaaci
0aaacq
1aaacr
0aaacu
0aaacv
0aaacw
0aaacy
0aaacz
0aaada
0aaadc
0aaadd
1aaade
0aaadk
0aaadm
1aaadp
0aaads
1aaadx

#35000
1aaaaa
0aaaac

#40000
0aaaaa
1aaaai
1aaaam
0aaaan
0aaaax
1aaaay
0aaaaz
1aaaba
1aaabb
0aaabc
0aaabe
0aaabg
1aaabi
1aaabj
1aaabp
0aaabq
1aaabs
0aaabx
1aaaby
0aaaca
0aaacb
1aaacf
0aaacl
0aaacm
1aaacn
1aaacp
1aaacq
0aaacs
1aaact
1aaacu
1aaacv
0aaacx
1aaacy
1aaada
1aaadb
1aaadc
1aaadd
0aaade
1aaadg
0aaadi
1aaadk
1aaadm
1aaadn
0aaadp
0aaadr
0aaadt
1aaadu
0aaadv
0aaadx

#45000
1aaaaa

#50000
0aaaaa
0aaaag
1aaaak
1aaaan
1aaaaw
1aaaax
0aaaay
1aaaaz
1aaabc
1aaabh
0aaabj
0aaabl
1aaabm
0aaabo
0aaabp
0aaabr
0aaabs
0aaabt
1aaabv
0aaabw
1aaabx
1aaabz
1aaaca
1aaacb
0aaacc
0aaacf
1aaach
1aaacl
0aaacn
0aaacp
0aaacr
1aaacs
0aaact
0aaacv
1aaacw
1aaacx
1aaacz
1aaade
1aaadf
0aaadh
1aaadi
0aaadk
1aaadl
0aaadm
0aaadn
0aaado
1aaadp
1aaadt
1aaadx

#55000
1aaaaa

#60000
0aaaaa
1aaaae
1aaaag
0aaaah
0aaaai
1aaaaj
0aaaam
0aaaaw
0aaaax
0aaaaz
0aaabb
0aaabf
0aaabi
1aaabj
1aaabl
0aaabm
1aaabp
1aaabq
1aaabr
1aaabs
1aaabt
1aaabw
0aaaby
0aaabz
1aaacc
0aaace
1aaacf
0aaach
1aaack
0aaacl
1aaacm
0aaacq
1aaacr
0aaacs
0aaacu
0aaacw
0aaacx
0aaacy
0aaacz
0aaadb
0aaadc
0aaadd
0aaadg
1aaadh
0aaadi
1aaadm
1aaadq
1aaads
0aaadt
0aaadu
1aaadw

#65000
1aaaaa
1aaaac

#70000
0aaaaa
0aaaae
0aaaaf
0aaaag
1aaaai
0aaaaj
1aaaam
0aaaan
1aaaax
1aaaaz
1aaabb
0aaabc
1aaabe
1aaabg
0aaabl
1aaabm
1aaabn
0aaabr
0aaabs
0aaabt
0aaabu
0aaabv
0aaabw
0aaabx
1aaaby
0aaacb
0aaacc
1aaace
0aaacf
0aaacg
0aaaci
1aaacj
1aaaco
1aaacs
1aaact
1aaacu
1aaacv
1aaacy
1aaadc
1aaadd
1aaadg
0aaadh
0aaadm
1aaadn
1aaado
0aaadp
0aaadq
1aaadr
1aaadu
0aaadw

#75000
1aaaaa
0aaaac
0aaaad

#80000
0aaaaa
1aaaae
1aaaaf
1aaaah
0aaaak
0aaaal
1aaaay
0aaaaz
0aaabb
0aaabe
1aaabf
0aaabg
1aaabk
1aaabl
0aaabp
1aaabu
1aaabx
1aaacb
1aaacc
1aaacd
0aaace
1aaacf
0aaack
1aaacl
0aaacs
0aaacy
1aaadb
0aaadc
0aaadd
0aaadf
0aaadg
1aaadh
1aaadk
0aaadn
0aaado
0aaadr
1aaadw

#85000
1aaaaa
1aaaac
1aaaad

#90000
0aaaaa
0aaaae
1aaaaw
0aaaax
0aaaay
0aaaba
1aaabc
0aaabf
1aaabg
1aaabi
0aaabj
0aaabm
1aaabt
1aaabv
0aaaby
0aaacm
0aaaco
1aaacq
0aaact
0aaacu
1aaacw
1aaacx
1aaacy
1aaacz
1aaadd
0aaade
1aaadg
0aaadh
0aaadj
0aaadk
1aaadp
1aaadr
0aaads
1aaadt
0aaadu
0aaadw

#95000
1aaaaa
0aaaac

#100000
0aaaaa
0aaaaf
1aaaag
0aaaai
1aaaaj
1aaaak
1aaaan
0aaaaw
1aaaax
1aaaay
1aaabb
0aaabc
1aaabe
1aaabf
0aaabh
0aaabk
0aaabl
1aaabp
0aaabq
1aaabr
0aaabt
0aaabu
1aaabw
0aaabx
0aaacb
0aaacc
0aaacd
1aaace
0aaacf
1aaaci
0aaacj
1aaacp
0aaacq
1aaact
0aaacy
0aaacz
0aaadd
1aaadi
1aaadk
0aaadl
1aaadm
1aaadn
1aaadq
0aaadt
1aaadu
1aaadv
0aaadx

#105000
1aaaaa
0aaaad

#110000
0aaaaa
0aaaag
0aaaah
0aaaak
0aaaam
0aaaan
1aaaaw
1aaaaz
0aaabb
0aaabg
1aaabm
1aaabo
1aaabs
0aaabv
1aaacd
1aaacj
0aaacp
0aaact
1aaacu
0aaacw
1aaacz
0aaada
0aaadb
1aaade
1aaadh
1aaadj
0aaadk
0aaadn
0aaadp
0aaadq
0aaadr

#115000
1aaaaa

#120000
0aaaaa
1aaaae
1aaaaf
1aaaai
1aaaak
1aaaam
0aaaax
1aaabb
1aaabd
0aaabe
0aaabf
1aaabk
0aaabo
0aaabp
1aaabt
0aaabw
1aaabx
1aaaby
1aaabz
1aaacb
0aaace
1aaacf
1aaacg
1aaach
0aaacl
1aaaco
1aaact
0aaacu
0aaacx
1aaacy
1aaadb
1aaadc
1aaadf
0aaadh
0aaadi
0aaadj
0aaadm
1aaadp
1aaadq
1aaadr
0aaadu
1aaadx

#125000
1aaaaa
1aaaac
1aaaad

#130000
0aaaaa
0aaaae
0aaaaw
0aaaaz
1aaaba
0aaabb
1aaabc
0aaabd
1aaabg
1aaabh
0aaabi
1aaabj
0aaabk
1aaabl
0aaabm
0aaabt
1aaabu
1aaabv
1aaabw
0aaabz
0aaacb
1aaacc
1aaace
0aaaci
0aaacj
1aaacn
1aaacp
1aaacq
0aaacr
0aaact
1aaacu
1aaacx
0aaacy
0aaacz
0aaadc
0aaade
0aaadf
1aaadh
1aaadi
1aaadj
1aaadk
1aaadl
1aaadm
1aaadn
0aaadp
0aaadq
0aaadv

#135000
1aaaaa
0aaaac

#140000
0aaaaa
0aaaaf
0aaaai
0aaaak
1aaaaw
0aaaay
1aaaaz
0aaaba
1aaabf
0aaabg
0aaabj
1aaabk
1aaabm
0aaabn
0aaabs
0aaabu
0aaabv
0aaabw
0aaabx
1aaabz
1aaacb
0aaacc
0aaacd
1aaaci
1aaack
0aaacn
0aaacq
1aaact
0aaacv
0aaacx
1aaacy
1aaacz
1aaada
0aaadb
1aaadd
1aaade
0aaadh
0aaadi
0aaadl
1aaadp
1aaadt
1aaadu
1aaadv

#145000
1aaaaa
0aaaad

#150000
0aaaaa
1aaaah
1aaaai
0aaaaj
1aaaal
0aaaam
1aaaay
1aaaba
0aaabc
1aaabd
0aaabf
1aaabg
1aaabi
1aaabj
0aaabl
1aaabo
0aaabr
1aaabs
1aaabt
0aaaby
0aaacb
1aaacd
0aaace
1aaacn
0aaaco
0aaacp
1aaacs
0aaact
1aaacw
1aaacx
0aaacy
0aaacz
1aaadc
0aaadd
0aaade
1aaadf
0aaadj
0aaadk
0aaadn
1aaado
1aaadq
0aaadr
1aaads
0aaadt
0aaadv
1aaadw
0aaadx

#155000
1aaaaa

#160000
0aaaaa
1aaaag
0aaaah
1aaaaj
0aaaal
1aaaam
1aaaan
1aaaax
0aaaba
1aaabe
0aaabi
0aaabk
0aaabo
1aaabp
1aaabq
1aaabr
0aaabs
0aaabt
1aaabv
1aaabx
1aaacc
0aaacg
1aaacl
0aaacn
1aaacp
0aaacs
1aaact
0aaacu
1aaacv
1aaadb
1aaade
1aaadh
1aaadi
1aaadk
0aaadq
0aaads
1aaadt
0aaadu
1aaadv
0aaadw
1aaadx

#165000
1aaaaa

#170000
0aaaaa
1aaaaf
0aaaag
1aaaah
0aaaai
0aaaaj
1aaaak
1aaaal
0aaaaw
0aaaax
1aaaba
1aaabb
0aaabe
0aaabg
0aaabh
0aaabj
1aaabk
0aaabm
0aaabp
0aaabq
1aaabs
1aaabt
1aaabu
0aaabv
0aaabz
1aaacg
0aaaci
1aaacm
1aaacq
1aaacu
0aaacv
1aaacz
0aaada
0aaadc
0aaade
0aaadf
1aaadl
0aaadm
0aaadp
1aaadq
1aaadr
0aaadt
0aaadv
1aaadw

#175000
1aaaaa
1aaaad

#180000
0aaaaa
0aaaaf
1aaaaj
0aaaak
0aaaal
0aaaam
0aaaan
1aaaax
0aaaaz
1aaabc
0aaabd
1aaabg
1aaabj
0aaabk
1aaabl
1aaabm
1aaabn
1aaabp
0aaabr
0aaabs
1aaabz
0aaaca
1aaacb
0aaacf
0aaach
1aaaci
0aaack
1aaacn
1aaacs
0aaact
0aaacu
1aaacy
0aaacz
1aaada
0aaadb
0aaadh
0aaadi
0aaadl
1aaadn
0aaado
1aaadp
0aaadq
0aaadr
1aaads
1aaadt
1aaadv
0aaadw

#185000
1aaaaa
0aaaad

#190000
0aaaaa
1aaaae
1aaaaf
1aaaag
0aaaah
1aaaal
1aaaam
1aaaan
1aaaaw
0aaaax
0aaaay
1aaaaz
0aaaba
1aaabe
0aaabj
1aaabk
0aaabl
0aaabm
1aaabq
1aaabr
1aaabs
0aaabt
0aaabx
1aaaby
0aaabz
1aaaca
0aaacb
0aaacc
0aaacd
1aaacf
0aaaci
1aaacj
1aaack
0aaacl
0aaacm
0aaacn
1aaaco
0aaacp
0aaacs
0aaacy
1aaacz
0aaada
1aaadb
1aaadc
1aaadd
1aaadf
0aaadg
1aaadh
1aaadj
1aaadm
1aaadr
1aaadu
0aaadx

#195000
1aaaaa
1aaaac
1aaaad

#200000
0aaaaa
0aaaaj
1aaaak
0aaaam
1aaaay
0aaaaz
1aaaba
1aaabd
0aaabe
1aaabf
1aaabi
1aaabj
0aaabk
1aaabl
1aaabm
0aaabn
0aaabp
0aaabq
0aaabr
1aaabt
0aaabu
1aaabw
1aaabz
1aaacb
1aaacd
1aaace
0aaacf
1aaach
1aaaci
1aaacl
1aaacn
1aaacp
0aaacq
1aaacr
1aaacs
1aaact
1aaacu
0aaacw
1aaada
0aaadb
0aaadc
0aaadf
1aaadg
1aaadi
1aaadl
1aaado
1aaadq
0aaadr
0aaads
0aaadt
1aaadx

#205000
1aaaaa

#210000
0aaaaa
0aaaae
0aaaag
1aaaaj
0aaaak
0aaaal
0aaaan
1aaaax
1aaaaz
0aaabc
1aaabe
0aaabf
0aaabj
1aaabk
0aaabl
1aaabn
1aaabq
0aaabs
0aaabt
1aaabu
0aaabw
0aaaby
0aaaca
0aaacb
1aaacc
0aaacd
0aaace
0aaacg
0aaaci
0aaaco
0aaacp
0aaacr
1aaacv
0aaacx
1aaacy
0aaacz
1aaadc
0aaadd
1aaade
0aaadi
0aaadk
0aaadn
0aaadq
1aaads
1aaadt
0aaadu
0aaadv
0aaadx

#215000
1aaaaa
0aaaac

#220000
0aaaaa
0aaaaf
1aaaah
0aaaaj
1aaaam
0aaaaw
0aaaax
0aaaay
0aaaaz
0aaaba
0aaabd
1aaabf
0aaabm
0aaabn
1aaabo
1aaabp
1aaabr
1aaabt
1aaabv
1aaabx
1aaaby
0aaacc
1aaacd
1aaace
1aaacg
1aaaci
0aaacj
1aaacm
1aaacp
1aaacr
1aaacw
1aaacz
1aaadb
1aaadd
1aaadf
0aaadg
1aaadi
0aaadj
0aaadl
0aaadm
0aaadp
1aaadr
1aaadu
1aaadw
1aaadx

#225000
1aaaaa
0aaaad

#230000
0aaaaa
1aaaaf
0aaaah
1aaaai
0aaaam
1aaaan
1aaaax
1aaaay
1aaaaz
1aaaba
0aaabb
1aaabc
0aaabf
1aaabh
0aaabi
1aaabn
0aaabp
0aaabq
0aaabu
0aaabx
0aaabz
1aaaca
0aaacg
0aaack
0aaacm
0aaacp
0aaacu
0aaacv
1aaacx
0aaacy
0aaacz
0aaadc
0aaade
0aaadf
1aaadg
0aaadi
1aaadj
1aaadm
0aaadu
0aaadx

#235000
1aaaaa
1aaaad

#240000
0aaaaa
1aaaae
1aaaag
1aaaah
1aaaam
0aaaan
1aaaaw
0aaaax
0aaaay
1aaabb
0aaabe
1aaabf
0aaabg
1aaabi
1aaabj
1aaabl
0aaabn
0aaabo
0aaabr
0aaabt
1aaabu
0aaaca
1aaacc
0aaace
1aaacf
1aaacj
1aaack
0aaacl
1aaacm
1aaacp
1aaacq
1aaacu
0aaacw
0aaacx
1aaacy
0aaada
0aaadb
1aaade
1aaadf
0aaadg
0aaadh
1aaadl
1aaadq
0aaadr
0aaads
1aaadv

#245000
1aaaaa
1aaaac

#250000
0aaaaa
0aaaaf
0aaaah
0aaaai
1aaaaj
0aaaam
1aaaan
0aaaaw
1aaaay
0aaabb
0aaabf
0aaabh
0aaabj
0aaabl
1aaabn
1aaabp
1aaabs
1aaabt
0aaaby
1aaaca
1aaacb
1aaace
0aaack
0aaacn
1aaaco
0aaacq
1aaacv
1aaacw
1aaacx
1aaacz
1aaada
0aaadd
1aaadi
0aaadj
1aaadr
0aaadt
0aaadw

#255000
1aaaaa

#260000
0aaaaa
1aaaaf
0aaaag
1aaaah
1aaaal
0aaaan
0aaaaz
1aaabf
1aaabm
0aaabn
0aaabp
1aaabq
1aaaby
1aaabz
0aaaca
0aaacb
0aaacc
0aaacf
0aaach
0aaacm
0aaaco
0aaacp
1aaacq
0aaacr
0aaact
0aaacu
0aaacv
0aaacw
0aaacx
0aaacy
0aaacz
0aaada
1aaadb
1aaadc
0aaadf
0aaadi
1aaadk
1aaadp
1aaadx

#265000
1aaaaa

#270000
0aaaaa
0aaaaf
0aaaah
1aaaai
0aaaaj
1aaaak
0aaaal
1aaaam
1aaaan
1aaaaw
0aaaay
1aaabb
0aaabc
0aaabf
1aaabg
0aaabi
1aaabj
0aaabk
0aaabq
1aaabr
0aaabs
0aaabu
1aaabw
1aaabx
0aaaby
1aaaca
1aaacb
0aaacd
0aaace
1aaacf
1aaach
0aaaci
1aaack
1aaacm
1aaacu
1aaacw
1aaada
0aaadb
0aaadc
1aaadi
0aaadk
0aaadm
1aaadn
0aaadp
0aaadq
1aaadu
0aaadv
1aaadw

#275000
1aaaaa

#280000
0aaaaa
0aaaae
1aaaag
1aaaah
0aaaai
0aaaak
1aaaal
0aaaam
0aaabb
1aaabc
1aaabd
1aaabf
1aaabh
1aaabk
1aaabl
0aaabm
1aaabn
1aaabo
0aaabr
1aaabs
0aaabt
1aaabu
0aaabv
0aaabz
0aaaca
0aaacb
1aaacc
1aaacd
0aaacf
1aaacg
0aaach
0aaacj
0aaack
0aaacm
1aaacp
0aaacq
1aaacr
1aaacx
1aaacy
1aaacz
0aaada
1aaadc
1aaadf
1aaadg
1aaadk
0aaadn
1aaadp
1aaadq
0aaadr
1aaadt
0aaadu

#285000
1aaaaa
0aaaac
0aaaad

#290000
0aaaaa
1aaaaf
0aaaag
0aaaah
1aaaai
1aaaaj
0aaaal
1aaaam
0aaaan
0aaaaw
1aaaay
1aaaaz
1aaabb
0aaabc
0aaabg
0aaabh
1aaabm
0aaabo
1aaabp
1aaabq
1aaabr
0aaabs
0aaabu
1aaabv
0aaabw
1aaaby
1aaabz
1aaaca
1aaacb
1aaace
1aaacf
0aaacg
1aaacj
1aaack
1aaacl
1aaaco
0aaacp
0aaacs
0aaacu
0aaacw
0aaacy
1aaada
1aaadb
1aaadd
0aaade
0aaadf
0aaadi
1aaadj
0aaadk
1aaadm
1aaadn
0aaadq
0aaadt
1aaadv

#295000
1aaaaa
1aaaad

#300000
0aaaaa
0aaaaf
0aaaam
1aaaax
0aaaba
0aaabb
1aaabc
0aaabd
1aaabe
1aaabh
1aaabi
0aaabl
0aaabn
1aaabo
0aaabq
0aaabr
1aaabu
1aaabw
0aaaby
0aaaca
0aaacd
0aaacj
0aaack
1aaacn
0aaaco
0aaacr
1aaacs
1aaacv
0aaacz
0aaadc
0aaadd
1aaade
0aaadg
1aaadh
1aaadi
1aaadk
0aaadl
0aaadm
0aaadn
1aaadq
1aaadr
1aaads

#305000
1aaaaa
0aaaad

#310000
0aaaaa
1aaaag
0aaaai
1aaaak
1aaaam
1aaaan
1aaaaw
0aaaax
0aaaaz
1aaaba
1aaabb
0aaabc
1aaabd
1aaabg
0aaabi
0aaabm
1aaabn
0aaabo
0aaabp
1aaabq
1aaabs
1aaabt
0aaabu
0aaabv
0aaabw
0aaabx
1aaaby
0aaabz
1aaaca
1aaacd
0aaace
1aaacg
1aaacj
0aaacl
1aaacq
1aaacr
0aaacs
0aaacv
1aaacw
0aaacx
1aaacz
0aaadb
1aaadd
1aaadg
0aaadi
0aaadj
0aaadk
1aaadm
1aaadn
0aaadq
0aaadr
1aaadt
1aaadu

#315000
1aaaaa

#320000
0aaaaa
1aaaae
1aaaai
1aaaal
0aaaam
0aaaan
1aaaax
1aaaaz
0aaabb
0aaabd
0aaabe
0aaabg
0aaabh
1aaabi
1aaabl
1aaabm
1aaabp
0aaabs
1aaabx
0aaaby
0aaaca
0aaacb
0aaacc
0aaacf
0aaacg
1aaacl
0aaacn
0aaacq
0aaacr
1aaacs
1aaact
1aaacu
1aaacv
0aaacw
1aaacy
0aaacz
0aaada
1aaadf
0aaadh
1aaadi
1aaadl
0aaadp
1aaadq
1aaadr
0aaadt
0aaadu
0aaadw
0aaadx

#325000
1aaaaa
1aaaac
1aaaad

#330000
0aaaaa
1aaaaf
0aaaaj
0aaaal
1aaaam
1aaaan
0aaabi
0aaabj
0aaabk
0aaabm
0aaabn
1aaabo
1aaabr
1aaabu
0aaabx
1aaach
1aaaci
1aaack
0aaacl
1aaacn
1aaacq
1aaacr
1aaacw
0aaacy
1aaada
1aaadb
1aaadc
0aaadd
0aaade
1aaadh
1aaadk
0aaadl
0aaado
1aaadp

#335000
1aaaaa

#340000
0aaaaa
0aaaae
1aaaah
1aaaaj
1aaaal
0aaaam
1aaabb
1aaabc
1aaabd
1aaabh
1aaabi
0aaabl
1aaabm
1aaabn
0aaabo
0aaabp
1aaabs
0aaabu
1aaabv
1aaaby
1aaabz
1aaacb
1aaacc
1aaacf
1aaacg
0aaach
0aaaci
0aaack
1aaacl
1aaacm
0aaacn
0aaacr
1aaacx
1aaacy
0aaadb
1aaadd
0aaadf
0aaadg
0aaadh
0aaadi
1aaadj
0aaadk
1aaadl
0aaadm
1aaado
0aaads
1aaadu
1aaadw
1aaadx

#345000
1aaaaa
0aaaac

